{
  "name": "shared-ui",
  "$schema": "../../../node_modules/nx/schemas/project-schema.json",
  "sourceRoot": "libs/shared/ui/src",
  "prefix": "angular-monorepo",
  "tags": ["type:ui", "scope:shared"],
  "projectType": "library",
  "targets": {
    "test": {
      "executor": "@nx/jest:jest",
      "outputs": ["{workspaceRoot}/coverage/{projectRoot}"],
      "options": {
        "jestConfig": "libs/shared/ui/jest.config.ts",
        "passWithNoTests": true
      },
      "configurations": {
        "ci": {
          "ci": true,
          "codeCoverage": true
        }
      }
    },
    "lint": {
      "executor": "@nx/eslint:lint",
      "outputs": ["{options.outputFile}"],
      "options": {
        "lintFilePatterns": [
          "libs/shared/ui/**/*.ts",
          "libs/shared/ui/**/*.html"
        ]
      }
    }
  }
}
