{
  "name": "inventory",
  "$schema": "../../node_modules/nx/schemas/project-schema.json",
  "projectType": "application",
  "prefix": "angular-monorepo",
  "sourceRoot": "apps/inventory/src",
  "tags": [],
  "targets": {
    "build": {
      "executor": "@angular-devkit/build-angular:browser",
      "outputs": ["{options.outputPath}"],
      "options": {
        "outputPath": "dist/apps/inventory",
        "index": "apps/inventory/src/index.html",
        "main": "apps/inventory/src/main.ts",
        "polyfills": ["zone.js"],
        "tsConfig": "apps/inventory/tsconfig.app.json",
        "assets": [
          "apps/inventory/src/favicon.ico",
          "apps/inventory/src/assets"
        ],
        "styles": ["apps/inventory/src/styles.css"],
        "scripts": []
      },
      "configurations": {
        "production": {
          "budgets": [
            {
              "type": "initial",
              "maximumWarning": "500kb",
              "maximumError": "1mb"
            },
            {
              "type": "anyComponentStyle",
              "maximumWarning": "2kb",
              "maximumError": "4kb"
            }
          ],
          "outputHashing": "all"
        },
        "development": {
          "buildOptimizer": false,
          "optimization": false,
          "vendorChunk": true,
          "extractLicenses": false,
          "sourceMap": true,
          "namedChunks": true
        }
      },
      "defaultConfiguration": "production"
    },
    "serve": {
      "executor": "@angular-devkit/build-angular:dev-server",
      "configurations": {
        "production": {
          "browserTarget": "inventory:build:production"
        },
        "development": {
          "browserTarget": "inventory:build:development"
        }
      },
      "defaultConfiguration": "development"
    },
    "extract-i18n": {
      "executor": "@angular-devkit/build-angular:extract-i18n",
      "options": {
        "browserTarget": "inventory:build"
      }
    },
    "lint": {
      "executor": "@nx/eslint:lint",
      "outputs": ["{options.outputFile}"],
      "options": {
        "lintFilePatterns": [
          "apps/inventory/**/*.ts",
          "apps/inventory/**/*.html"
        ]
      }
    },
    "test": {
      "executor": "@nx/jest:jest",
      "outputs": ["{workspaceRoot}/coverage/{projectRoot}"],
      "options": {
        "jestConfig": "apps/inventory/jest.config.ts",
        "passWithNoTests": true
      },
      "configurations": {
        "ci": {
          "ci": true,
          "codeCoverage": true
        }
      }
    }
  }
}
